{
  "$schema": "https://raw.githubusercontent.com/microsoft/vcpkg-tool/main/docs/vcpkg-configuration.schema.json",
  "default-registry": {
    "kind": "git",
    "repository": "https://github.com/microsoft/vcpkg",
    "baseline": "ea189a0a823a17dca94f6af61d09429f2f45502c"
  },
  "registries": [
    {
      "kind": "git",
      "repository": "https://gitlab.com/kicad/packaging/kicad-vcpkg-registry.git",
      "baseline": "06e0182e3f53f29d15ccf123412a3af76e42ecc5",
      "packages": [
        "glew",
        "python3",
        "opencascade",
        "wxpython",
        "wxwidgets",
        "ngspice"
      ]
    }
  ]
}
